<?xml version="1.0" encoding="utf-8"?>
<!-- Generator: Adobe Illustrator 16.0.0, SVG Export Plug-In . SVG Version: 6.00 Build 0)  -->
<!DOCTYPE svg PUBLIC "-//W3C//DTD SVG 1.1//EN" "http://www.w3.org/Graphics/SVG/1.1/DTD/svg11.dtd">
<svg version="1.1" id="Layer_1" xmlns="http://www.w3.org/2000/svg" xmlns:xlink="http://www.w3.org/1999/xlink" x="0px" y="0px"
	 width="42px" height="42px" viewBox="0 0 42 42" enable-background="new 0 0 42 42" xml:space="preserve">
<g>
	<g>
		<path fill="#010101" d="M21,0C9.421,0,0,9.421,0,21c0,11.579,9.421,21,21,21c11.579,0,21-9.421,21-21C42,9.421,32.58,0,21,0z
			 M26.223,21.739h-3.417c0,5.459,0,12.178,0,12.178h-5.062c0,0,0-6.654,0-12.178h-2.407v-4.304h2.407v-2.784
			c0-1.994,0.948-5.109,5.109-5.109l3.751,0.014v4.178c0,0-2.279,0-2.723,0s-1.073,0.221-1.073,1.172v2.529h3.857L26.223,21.739z"/>
	</g>
</g>
</svg>
